{
  "users": [
    {
      "id": 1,
      "created_at": "2020-08-12 02:39:45",
      "updated_at": "2020-08-12 02:39:45",
      "username": "username",
      "password": "password"
    },
    {
      "id": 2,
      "created_at": "2020-08-14 03:39:45",
      "updated_at": "2020-08-14 03:39:45",
      "username": "user",
      "password": "123"
    }
  ],
  "movies": [
    {
      "id": 1,
      "created_at": "2020-08-14 08:39:45",
      "updated_at": "2020-08-14 09:39:45",
      "title": "Avengers Infinity War",
      "description": "The Avengers dan sekutu mereka harus bersedia mengorbankan segalanya dalam upaya untuk mengalahkan Thanos yang kuat sebelum ia berhasil menghancurkan alam semesta.",
      "year": "2018",
      "duration": "149",
      "genre": "Action & Adventure, Science Fiction & Fantasy",
      "rating": "7",
      "review": "17516",
      "image_url": "https://encrypted-tbn0.gstatic.com/images?q=tbn%3AANd9GcRAqU_tNTj3Nt8Dz5AyIXrWH7hYGSDHBpzxVg&usqp=CAU"
    },
    {
      "id": 2,
      "created_at": "2020-08-13 09:39:45",
      "updated_at": "2020-08-13 10:39:45",
      "title": "Batman (The Dark Knight)",
      "description": "The Dark Knight adalah film superhero kriminal thriller tahun 2008 yang disutradarai oleh Christopher Nolan dan diproduseri oleh Christopher Nolan, Charles Roven dan Emma Thomas. Naskah film ini ditulis oleh Christopher Nolan dan Jonathan Nolan, sementara ceritanya ditulis oleh Christopher Nolan",
      "year": "2008",
      "duration": "130",
      "genre": "Action & Adventure, Science Fiction & Fantasy",
      "rating": "8",
      "review": "18513",
      "image_url": "https://encrypted-tbn0.gstatic.com/images?q=tbn%3AANd9GcQf9M5mHJX-ROwScTU1R5ST2PyuBuoOxIxxKg&usqp=CAU"
    },
    {
      "id": 3,
      "created_at": "2020-08-12 01:39:45",
      "updated_at": "2020-08-12 02:39:45",
      "title": "Final Destination 1",
      "description": "Final Destination adalah waralaba horor Amerika yang terdiri dari lima film, dua buku komik, dan sembilan novel. Ini didasarkan pada skrip spec yang tidak diproduksi oleh Jeffrey Reddick, awalnya ditulis untuk serial televisi The X-Files, dan didistribusikan oleh New Line Cinema.",
      "year": "2000",
      "duration": "110",
      "genre": "Horror, Mystery & Suspense",
      "rating": "6",
      "review": "18513",
      "image_url": "https://encrypted-tbn0.gstatic.com/images?q=tbn%3AANd9GcQbxftrcu9Bc_URdgpvR6atA6b3Ag1LwG0Zug&usqp=CAU"
    },
    {
      "id": 4,
      "created_at": "2020-08-10 03:39:45",
      "updated_at": "2020-08-10 04:39:45",
      "title": "The Conjuring",
      "description": "The Conjuring adalah film horor supranatural Amerika Serikat tahun 2013 yang disutradarai oleh James Wan.",
      "year": "2013",
      "duration": "120",
      "genre": "Horror, Mystery & Suspense",
      "rating": "6",
      "review": "16513",
      "image_url": "https://encrypted-tbn0.gstatic.com/images?q=tbn%3AANd9GcSlLB77EiHnNeiu7ESAJwghMclxQws_If8KJA&usqp=CAU"
    },
    {
      "id": 5,
      "created_at": "2020-08-11 07:39:45",
      "updated_at": "2020-08-11 08:39:45",
      "title": "The Hangover",
      "description": "The Hangover adalah film komedi Amerika Serikat tahun 2009 yang disutradarai oleh Todd Phillips, ditulis oleh Jon Lucas, dan diproduseri oleh Todd Phillips dan Daniel Goldberg. Film ini dibintangi oleh Bradley Cooper, Ed Helms, Zach Galifianakis, Justin Bartha, dan Heather Graham.",
      "year": 2009,
      "duration": 100,
      "genre": "Comedy, ",
      "rating": 8,
      "review": "18513",
      "image_url": "https://encrypted-tbn0.gstatic.com/images?q=tbn%3AANd9GcT05Sz6cy9MMy9LG5heyE_esCNbPkgt4qmghQ&usqp=CAU"
    },
    {
      "id": 6,
      "created_at": "2020-08-09 06:39:45",
      "updated_at": "2020-08-09 07:39:45",
      "title": "The Dictator",
      "description": "The Dictator adalah sebuah film komedi Amerika Serikat tahun 2012 yang ditulis dan dibintangi oleh Sacha Baron Cohen. Ini adalah film keempat yang pemain utamanya diperankan Cohen. Film ini disutradarai Larry Charles, yang sebelumnya pernah menyutradarai mokumenter Borat dan Brüno.",
      "year": 2012,
      "duration": 110,
      "genre": "Comedy, ",
      "rating": 6,
      "review": "10513",
      "image_url": "https://encrypted-tbn0.gstatic.com/images?q=tbn%3AANd9GcSp_FeDE1fb2VvpuWFIt_ISuJS5N2k6PCI26w&usqp=CAU"
    },
    {
      "title": "500 Days of Summer",
      "description": "500 Days of Summer (stylized as (500) Days of Summer) is a 2009 American romantic comedy-drama film by first-time director Marc Webb[3] from a screenplay written by Scott Neustadter and Michael H. Weber, and produced by Mark Waters. The film stars Joseph Gordon-Levitt and Zooey Deschanel, and employs a nonlinear narrative structure, with the story based upon its male protagonist and his memories of a failed relationship.",
      "year": "2009",
      "duration": "95",
      "genre": "Drama",
      "rating": "8",
      "review": "30513",
      "image_url": "https://encrypted-tbn0.gstatic.com/images?q=tbn%3AANd9GcQG65ceh-9gwLkyG8kXnFOuGDd3skckcjgkxA&usqp=CAU",
      "id": 7
    },
    {
      "title": "The Fault in Our Stars",
      "description": "The Fault in Our Stars adalah film drama romantis Amerika Serikat tahun 2014 yang disutradarai oleh Josh Boone dan diproduseri oleh Marty Bowen dan Wyck Godfrey. Naskah film ini ditulis oleh Scott Neustadter dan Michael H. Weber berdasarkan novel The Fault in Our Stars karya John Green.",
      "year": "2014",
      "duration": "125",
      "genre": "Drama",
      "rating": "7",
      "review": "12398",
      "image_url": "https://encrypted-tbn0.gstatic.com/images?q=tbn%3AANd9GcRGg846nrCMilk02zQLMfNaScz2F8BcxL0Smg&usqp=CAU",
      "id": 8
    }
  ],
  "games": [
    {
      "id": 1,
      "created_at": "2020-08-12 03:39:45",
      "updated_at": "2020-08-12 04:39:45",
      "name": "Shadow of the Tomb Raider",
      "genre": "Action",
      "singlePlayer": 1,
      "multiplayer": 1,
      "platform": "PC",
      "release": "2019",
      "image_url": "https://encrypted-tbn0.gstatic.com/images?q=tbn%3AANd9GcT3CHtYGssGJEu0FHlAmS70ZzYjz75FORaUzg&usqp=CAU"
    },
    {
      "id": 2,
      "created_at": "2020-08-14 05:39:45",
      "updated_at": "2020-08-14 06:39:45",
      "name": "Uncharted: The Lost Legacy",
      "genre": "Action",
      "singlePlayer": 1,
      "multiplayer": 1,
      "platform": "PS4",
      "release": "2017",
      "image_url": "https://encrypted-tbn0.gstatic.com/images?q=tbn%3AANd9GcSZkphryKUEFeeIz6ly0uWhIt8J3CUUIkGssg&usqp=CAU"
    }
  ]
}